Fitting a spatiotemporal model and deriving an abundance index
…
Adding UTMs

We can add UTM columns using add_utm_columns():

add_utm_columns(dat, ll_names = c("longitude", "latitude"))

Warning: Multiple UTM zones detected.
Proceeding with the most common value.
You may wish to choose a different projection.

Proceeding with UTM zone 9N; CRS = 32609.

Visit https://epsg.io/32609 to verify.

# A tibble: 1,333 × 7
   longitude latitude  year depth density     X     Y
       <dbl>    <dbl> <int> <dbl>   <dbl> <dbl> <dbl>
 1     -126.     48.4  2004   140   4.56   744. 5362.
 2     -126.     48.4  2004   145   0.395  737. 5362.
 3     -126.     48.3  2004   320   0.124  729. 5356.
 4     -126.     48.4  2004   554   0      725. 5362.
 5     -126.     48.4  2004   279   0      712. 5368.
 6     -126.     48.7  2004   117   0.497  734. 5403.
 7     -126.     48.7  2004    70   0.558  731. 5394.
 8     -126.     48.6  2004    61   0.610  737. 5393.
 9     -126.     48.6  2004    77   0.767  731. 5383.
10     -126.     48.5  2004    92   8.45   734. 5377.
# ℹ 1,323 more rows
…
